^C:\USERS\K0BRA\SOURCE\REPOS\PROJECT1\PROJECT1\RELEASE\GRAF.OBJ|C:\USERS\K0BRA\SOURCE\REPOS\PROJECT1\PROJECT1\RELEASE\SOURCE.OBJ|C:\USERS\K0BRA\SOURCE\REPOS\PROJECT1\PROJECT1\RELEASE\TINYXML2.OBJ
C:\USERS\K0BRA\SOURCE\REPOS\PROJECT1\RELEASE\PROJECT1.EXE
C:\USERS\K0BRA\SOURCE\REPOS\PROJECT1\RELEASE\PROJECT1.PDB
